[
    {
        "id": 1,
        "username": "tcudbertson0",
        "firstName": "Toni",
        "lastName": "Cudbertson",
        "email": "tcudbertson0@berkeley.edu",
        "birthDate": "7/10/2008",
        "basicSalary": 5000000,
        "status": true,
        "group": "Training",
        "description": "explicit"
    },
    {
        "id": 2,
        "username": "odelve1",
        "firstName": "Osgood",
        "lastName": "Delve",
        "email": "odelve1@biglobe.ne.jp",
        "birthDate": "5/12/1999",
        "basicSalary": 6000000,
        "status": false,
        "group": "Human Resources",
        "description": "bandwidth-monitored"
    },
    {
        "id": 3,
        "username": "vhodgon2",
        "firstName": "Valle",
        "lastName": "Hodgon",
        "email": "vhodgon2@mayoclinic.com",
        "birthDate": "1/28/2003",
        "basicSalary": 6000000,
        "status": true,
        "group": "Accounting",
        "description": "optimal"
    },
    {
        "id": 4,
        "username": "oprobate3",
        "firstName": "Ofella",
        "lastName": "Probate",
        "email": "oprobate3@mapy.cz",
        "birthDate": "2/9/2004",
        "basicSalary": 7000000,
        "status": true,
        "group": "Human Resources",
        "description": "Team-oriented"
    },
    {
        "id": 5,
        "username": "hrobertson4",
        "firstName": "Hildagarde",
        "lastName": "Robertson",
        "email": "hrobertson4@epa.gov",
        "birthDate": "1/7/2005",
        "basicSalary": 8000000,
        "status": true,
        "group": "Business Development",
        "description": "Inverse"
    },
    {
        "id": 6,
        "username": "tballin5",
        "firstName": "Tudor",
        "lastName": "Ballin",
        "email": "tballin5@nba.com",
        "birthDate": "3/22/2001",
        "basicSalary": 7000000,
        "status": false,
        "group": "Legal",
        "description": "encryption"
    },
    {
        "id": 7,
        "username": "naitcheson6",
        "firstName": "Nilson",
        "lastName": "Aitcheson",
        "email": "naitcheson6@google.com",
        "birthDate": "2/2/2008",
        "basicSalary": 8000000,
        "status": true,
        "group": "Accounting",
        "description": "Networked"
    },
    {
        "id": 8,
        "username": "dgillman7",
        "firstName": "Dannel",
        "lastName": "Gillman",
        "email": "dgillman7@123-reg.co.uk",
        "birthDate": "11/28/2009",
        "basicSalary": 9000000,
        "status": false,
        "group": "Product Management",
        "description": "Cross-platform"
    },
    {
        "id": 9,
        "username": "asparrow8",
        "firstName": "Aaron",
        "lastName": "Sparrow",
        "email": "asparrow8@sphinn.com",
        "birthDate": "9/13/2018",
        "basicSalary": 8000000,
        "status": false,
        "group": "Product Management",
        "description": "website"
    },
    {
        "id": 10,
        "username": "wmursell9",
        "firstName": "Winnah",
        "lastName": "Mursell",
        "email": "wmursell9@virginia.edu",
        "birthDate": "8/31/2013",
        "basicSalary": 9000000,
        "status": true,
        "group": "Support",
        "description": "system engine"
    },
    {
        "id": 11,
        "username": "lbernardouxa",
        "firstName": "Lucille",
        "lastName": "Bernardoux",
        "email": "lbernardouxa@ft.com",
        "birthDate": "12/18/2005",
        "basicSalary": 6000000,
        "status": false,
        "group": "Legal",
        "description": "background"
    },
    {
        "id": 12,
        "username": "cbayldonb",
        "firstName": "Christean",
        "lastName": "Bayldon",
        "email": "cbayldonb@printfriendly.com",
        "birthDate": "3/19/2019",
        "basicSalary": 7000000,
        "status": false,
        "group": "Marketing",
        "description": "fresh-thinking"
    },
    {
        "id": 13,
        "username": "atennantc",
        "firstName": "Art",
        "lastName": "Tennant",
        "email": "atennantc@wisc.edu",
        "birthDate": "2/23/2017",
        "basicSalary": 6000000,
        "status": false,
        "group": "Research and Development",
        "description": "regional"
    },
    {
        "id": 14,
        "username": "agouchd",
        "firstName": "Amargo",
        "lastName": "Gouch",
        "email": "agouchd@tuttocitta.it",
        "birthDate": "2/6/2016",
        "basicSalary": 5000000,
        "status": false,
        "group": "Human Resources",
        "description": "Front-line"
    },
    {
        "id": 15,
        "username": "zmcivore",
        "firstName": "Zolly",
        "lastName": "McIvor",
        "email": "zmcivore@rakuten.co.jp",
        "birthDate": "4/23/2013",
        "basicSalary": 7000000,
        "status": false,
        "group": "Services",
        "description": "project"
    },
    {
        "id": 16,
        "username": "edufourf",
        "firstName": "Elene",
        "lastName": "Dufour",
        "email": "edufourf@live.com",
        "birthDate": "11/26/2009",
        "basicSalary": 9000000,
        "status": true,
        "group": "Business Development",
        "description": "asynchronous"
    },
    {
        "id": 17,
        "username": "fjeannessong",
        "firstName": "Fanechka",
        "lastName": "Jeannesson",
        "email": "fjeannessong@merriam-webster.com",
        "birthDate": "2/17/1997",
        "basicSalary": 7000000,
        "status": true,
        "group": "Support",
        "description": "Up-sized"
    },
    {
        "id": 18,
        "username": "jpirrieh",
        "firstName": "Justino",
        "lastName": "Pirrie",
        "email": "jpirrieh@youku.com",
        "birthDate": "8/5/2008",
        "basicSalary": 6000000,
        "status": true,
        "group": "Business Development",
        "description": "Vision-oriented"
    },
    {
        "id": 19,
        "username": "lbrewsei",
        "firstName": "Lyda",
        "lastName": "Brewse",
        "email": "lbrewsei@skype.com",
        "birthDate": "11/29/2006",
        "basicSalary": 6000000,
        "status": false,
        "group": "Research and Development",
        "description": "Polarised"
    },
    {
        "id": 20,
        "username": "noglesj",
        "firstName": "Nadine",
        "lastName": "Ogles",
        "email": "noglesj@chron.com",
        "birthDate": "1/18/2010",
        "basicSalary": 7000000,
        "status": false,
        "group": "Accounting",
        "description": "Advanced"
    },
    {
        "id": 21,
        "username": "zmccunnk",
        "firstName": "Zelig",
        "lastName": "McCunn",
        "email": "zmccunnk@upenn.edu",
        "birthDate": "10/13/2016",
        "basicSalary": 6000000,
        "status": true,
        "group": "Accounting",
        "description": "transitional"
    },
    {
        "id": 22,
        "username": "gdarkinl",
        "firstName": "Gannie",
        "lastName": "Darkin",
        "email": "gdarkinl@oaic.gov.au",
        "birthDate": "11/29/2017",
        "basicSalary": 7000000,
        "status": false,
        "group": "Engineering",
        "description": "interface"
    },
    {
        "id": 23,
        "username": "dmallinderm",
        "firstName": "Derwin",
        "lastName": "Mallinder",
        "email": "dmallinderm@ca.gov",
        "birthDate": "2/17/2008",
        "basicSalary": 9000000,
        "status": true,
        "group": "Human Resources",
        "description": "Inverse"
    },
    {
        "id": 24,
        "username": "pbernaden",
        "firstName": "Patrizio",
        "lastName": "Bernade",
        "email": "pbernaden@state.tx.us",
        "birthDate": "9/27/2009",
        "basicSalary": 8000000,
        "status": true,
        "group": "Training",
        "description": "complexity"
    },
    {
        "id": 25,
        "username": "ctillso",
        "firstName": "Cindy",
        "lastName": "Tills",
        "email": "ctillso@nbcnews.com",
        "birthDate": "7/21/1996",
        "basicSalary": 6000000,
        "status": false,
        "group": "Engineering",
        "description": "parallelism"
    },
    {
        "id": 26,
        "username": "rwaddellp",
        "firstName": "Roberta",
        "lastName": "Waddell",
        "email": "rwaddellp@clickbank.net",
        "birthDate": "4/5/2007",
        "basicSalary": 9000000,
        "status": true,
        "group": "Accounting",
        "description": "Synchronised"
    },
    {
        "id": 27,
        "username": "dkeigherq",
        "firstName": "Dode",
        "lastName": "Keigher",
        "email": "dkeigherq@google.pl",
        "birthDate": "6/18/2004",
        "basicSalary": 9000000,
        "status": false,
        "group": "Accounting",
        "description": "Organized"
    },
    {
        "id": 28,
        "username": "acombenr",
        "firstName": "Archibald",
        "lastName": "Comben",
        "email": "acombenr@wisc.edu",
        "birthDate": "1/4/2005",
        "basicSalary": 5000000,
        "status": true,
        "group": "Engineering",
        "description": "methodology"
    },
    {
        "id": 29,
        "username": "dyeiless",
        "firstName": "Damita",
        "lastName": "Yeiles",
        "email": "dyeiless@lulu.com",
        "birthDate": "4/7/2008",
        "basicSalary": 8000000,
        "status": false,
        "group": "Human Resources",
        "description": "policy"
    },
    {
        "id": 30,
        "username": "wdurrellt",
        "firstName": "Wilmette",
        "lastName": "Durrell",
        "email": "wdurrellt@sphinn.com",
        "birthDate": "5/5/2006",
        "basicSalary": 9000000,
        "status": false,
        "group": "Marketing",
        "description": "user-facing"
    },
    {
        "id": 31,
        "username": "ckemstonu",
        "firstName": "Costanza",
        "lastName": "Kemston",
        "email": "ckemstonu@ask.com",
        "birthDate": "11/13/1991",
        "basicSalary": 8000000,
        "status": true,
        "group": "Legal",
        "description": "access"
    },
    {
        "id": 32,
        "username": "jlipsettv",
        "firstName": "Jacobo",
        "lastName": "Lipsett",
        "email": "jlipsettv@fda.gov",
        "birthDate": "12/15/2013",
        "basicSalary": 9000000,
        "status": true,
        "group": "Business Development",
        "description": "Extended"
    },
    {
        "id": 33,
        "username": "bpedroniw",
        "firstName": "Bevon",
        "lastName": "Pedroni",
        "email": "bpedroniw@omniture.com",
        "birthDate": "11/18/2008",
        "basicSalary": 6000000,
        "status": false,
        "group": "Accounting",
        "description": "Business-focused"
    },
    {
        "id": 34,
        "username": "dyettonx",
        "firstName": "Drusy",
        "lastName": "Yetton",
        "email": "dyettonx@mlb.com",
        "birthDate": "11/28/2010",
        "basicSalary": 9000000,
        "status": true,
        "group": "Business Development",
        "description": "Monitored"
    },
    {
        "id": 35,
        "username": "lodonohuey",
        "firstName": "Livvy",
        "lastName": "O'Donohue",
        "email": "lodonohuey@mediafire.com",
        "birthDate": "11/23/2013",
        "basicSalary": 9000000,
        "status": false,
        "group": "Business Development",
        "description": "contingency"
    },
    {
        "id": 36,
        "username": "aarnaudonz",
        "firstName": "Anatole",
        "lastName": "Arnaudon",
        "email": "aarnaudonz@friendfeed.com",
        "birthDate": "11/18/1996",
        "basicSalary": 9000000,
        "status": true,
        "group": "Product Management",
        "description": "Enterprise-wide"
    },
    {
        "id": 37,
        "username": "rgriffen10",
        "firstName": "Roz",
        "lastName": "Griffen",
        "email": "rgriffen10@dedecms.com",
        "birthDate": "5/13/2015",
        "basicSalary": 8000000,
        "status": false,
        "group": "Research and Development",
        "description": "bandwidth-monitored"
    },
    {
        "id": 38,
        "username": "aemberton11",
        "firstName": "Angeline",
        "lastName": "Emberton",
        "email": "aemberton11@sciencedaily.com",
        "birthDate": "5/4/1992",
        "basicSalary": 8000000,
        "status": true,
        "group": "Product Management",
        "description": "asynchronous"
    },
    {
        "id": 39,
        "username": "mgiffen12",
        "firstName": "Meghan",
        "lastName": "Giffen",
        "email": "mgiffen12@g.co",
        "birthDate": "6/19/2002",
        "basicSalary": 7000000,
        "status": true,
        "group": "Services",
        "description": "encoding"
    },
    {
        "id": 40,
        "username": "ncantu13",
        "firstName": "Ninon",
        "lastName": "Cantu",
        "email": "ncantu13@bbb.org",
        "birthDate": "8/24/2016",
        "basicSalary": 7000000,
        "status": true,
        "group": "Services",
        "description": "matrix"
    },
    {
        "id": 41,
        "username": "rdionisio14",
        "firstName": "Rollin",
        "lastName": "Dionisio",
        "email": "rdionisio14@loc.gov",
        "birthDate": "1/3/2018",
        "basicSalary": 7000000,
        "status": true,
        "group": "Legal",
        "description": "Organized"
    },
    {
        "id": 42,
        "username": "pkebbell15",
        "firstName": "Prent",
        "lastName": "Kebbell",
        "email": "pkebbell15@webs.com",
        "birthDate": "2/21/1996",
        "basicSalary": 5000000,
        "status": false,
        "group": "Training",
        "description": "value-added"
    },
    {
        "id": 43,
        "username": "bcornforth16",
        "firstName": "Biddy",
        "lastName": "Cornforth",
        "email": "bcornforth16@nasa.gov",
        "birthDate": "7/30/2002",
        "basicSalary": 9000000,
        "status": false,
        "group": "Business Development",
        "description": "archive"
    },
    {
        "id": 44,
        "username": "adonovin17",
        "firstName": "Arline",
        "lastName": "Donovin",
        "email": "adonovin17@dagondesign.com",
        "birthDate": "8/8/1994",
        "basicSalary": 8000000,
        "status": false,
        "group": "Legal",
        "description": "explicit"
    },
    {
        "id": 45,
        "username": "hkohtler18",
        "firstName": "Haslett",
        "lastName": "Kohtler",
        "email": "hkohtler18@domainmarket.com",
        "birthDate": "12/21/1999",
        "basicSalary": 6000000,
        "status": false,
        "group": "Support",
        "description": "Programmable"
    },
    {
        "id": 46,
        "username": "elefrank19",
        "firstName": "Edgardo",
        "lastName": "Le Frank",
        "email": "elefrank19@paypal.com",
        "birthDate": "2/9/2004",
        "basicSalary": 7000000,
        "status": false,
        "group": "Support",
        "description": "functionalities"
    },
    {
        "id": 47,
        "username": "mpoundsford1a",
        "firstName": "Meaghan",
        "lastName": "Poundsford",
        "email": "mpoundsford1a@google.pl",
        "birthDate": "2/26/2005",
        "basicSalary": 7000000,
        "status": false,
        "group": "Product Management",
        "description": "model"
    },
    {
        "id": 48,
        "username": "mquilleash1b",
        "firstName": "Marje",
        "lastName": "Quilleash",
        "email": "mquilleash1b@myspace.com",
        "birthDate": "6/26/2002",
        "basicSalary": 6000000,
        "status": true,
        "group": "Support",
        "description": "open architecture"
    },
    {
        "id": 49,
        "username": "wwylie1c",
        "firstName": "Westbrooke",
        "lastName": "Wylie",
        "email": "wwylie1c@github.com",
        "birthDate": "2/18/2016",
        "basicSalary": 5000000,
        "status": true,
        "group": "Business Development",
        "description": "knowledge user"
    },
    {
        "id": 50,
        "username": "fkirstein1d",
        "firstName": "Frieda",
        "lastName": "Kirstein",
        "email": "fkirstein1d@senate.gov",
        "birthDate": "8/8/1994",
        "basicSalary": 9000000,
        "status": true,
        "group": "Legal",
        "description": "Virtual"
    },
    {
        "id": 51,
        "username": "cbidewell1e",
        "firstName": "Carolee",
        "lastName": "Bidewell",
        "email": "cbidewell1e@typepad.com",
        "birthDate": "4/16/2007",
        "basicSalary": 8000000,
        "status": false,
        "group": "Engineering",
        "description": "orchestration"
    },
    {
        "id": 52,
        "username": "mconman1f",
        "firstName": "Marlane",
        "lastName": "Conman",
        "email": "mconman1f@twitter.com",
        "birthDate": "11/26/2018",
        "basicSalary": 5000000,
        "status": false,
        "group": "Accounting",
        "description": "value-added"
    },
    {
        "id": 53,
        "username": "fwestrope1g",
        "firstName": "Fons",
        "lastName": "Westrope",
        "email": "fwestrope1g@altervista.org",
        "birthDate": "6/3/2012",
        "basicSalary": 8000000,
        "status": false,
        "group": "Research and Development",
        "description": "dedicated"
    },
    {
        "id": 54,
        "username": "anewey1h",
        "firstName": "Alanah",
        "lastName": "Newey",
        "email": "anewey1h@theatlantic.com",
        "birthDate": "3/24/2008",
        "basicSalary": 7000000,
        "status": false,
        "group": "Engineering",
        "description": "client-server"
    },
    {
        "id": 55,
        "username": "agoldsby1i",
        "firstName": "Alric",
        "lastName": "Goldsby",
        "email": "agoldsby1i@weebly.com",
        "birthDate": "3/20/2020",
        "basicSalary": 9000000,
        "status": true,
        "group": "Sales",
        "description": "coherent"
    },
    {
        "id": 56,
        "username": "llynde1j",
        "firstName": "Lonee",
        "lastName": "Lynde",
        "email": "llynde1j@dedecms.com",
        "birthDate": "5/1/1999",
        "basicSalary": 7000000,
        "status": true,
        "group": "Training",
        "description": "optimizing"
    },
    {
        "id": 57,
        "username": "ckenewell1k",
        "firstName": "Corrinne",
        "lastName": "Kenewell",
        "email": "ckenewell1k@umich.edu",
        "birthDate": "5/29/1994",
        "basicSalary": 9000000,
        "status": true,
        "group": "Services",
        "description": "Function-based"
    },
    {
        "id": 58,
        "username": "lenevoldsen1l",
        "firstName": "Lanette",
        "lastName": "Enevoldsen",
        "email": "lenevoldsen1l@domainmarket.com",
        "birthDate": "4/23/1991",
        "basicSalary": 9000000,
        "status": true,
        "group": "Sales",
        "description": "frame"
    },
    {
        "id": 59,
        "username": "mjanku1m",
        "firstName": "Manya",
        "lastName": "Janku",
        "email": "mjanku1m@ft.com",
        "birthDate": "8/22/2009",
        "basicSalary": 5000000,
        "status": true,
        "group": "Services",
        "description": "Up-sized"
    },
    {
        "id": 60,
        "username": "bnewis1n",
        "firstName": "Billy",
        "lastName": "Newis",
        "email": "bnewis1n@seesaa.net",
        "birthDate": "2/8/2020",
        "basicSalary": 8000000,
        "status": false,
        "group": "Support",
        "description": "non-volatile"
    },
    {
        "id": 61,
        "username": "sfisby1o",
        "firstName": "Stanislas",
        "lastName": "Fisby",
        "email": "sfisby1o@odnoklassniki.ru",
        "birthDate": "3/12/1991",
        "basicSalary": 5000000,
        "status": true,
        "group": "Marketing",
        "description": "secured line"
    },
    {
        "id": 62,
        "username": "sgyorgy1p",
        "firstName": "Sonnie",
        "lastName": "Gyorgy",
        "email": "sgyorgy1p@vimeo.com",
        "birthDate": "11/28/2001",
        "basicSalary": 6000000,
        "status": true,
        "group": "Sales",
        "description": "moratorium"
    },
    {
        "id": 63,
        "username": "tdavern1q",
        "firstName": "Terrye",
        "lastName": "Davern",
        "email": "tdavern1q@purevolume.com",
        "birthDate": "9/2/2003",
        "basicSalary": 8000000,
        "status": false,
        "group": "Product Management",
        "description": "Synergistic"
    },
    {
        "id": 64,
        "username": "tgoodyer1r",
        "firstName": "Tybi",
        "lastName": "Goodyer",
        "email": "tgoodyer1r@bigcartel.com",
        "birthDate": "7/28/2001",
        "basicSalary": 8000000,
        "status": true,
        "group": "Training",
        "description": "time-frame"
    },
    {
        "id": 65,
        "username": "rproback1s",
        "firstName": "Reed",
        "lastName": "Proback",
        "email": "rproback1s@1und1.de",
        "birthDate": "11/18/1996",
        "basicSalary": 9000000,
        "status": true,
        "group": "Training",
        "description": "4th generation"
    },
    {
        "id": 66,
        "username": "cdiggens1t",
        "firstName": "Clerkclaude",
        "lastName": "Diggens",
        "email": "cdiggens1t@i2i.jp",
        "birthDate": "5/23/2010",
        "basicSalary": 5000000,
        "status": false,
        "group": "Training",
        "description": "asynchronous"
    },
    {
        "id": 67,
        "username": "bchaulk1u",
        "firstName": "Barret",
        "lastName": "Chaulk",
        "email": "bchaulk1u@parallels.com",
        "birthDate": "11/6/1994",
        "basicSalary": 5000000,
        "status": false,
        "group": "Human Resources",
        "description": "Cross-platform"
    },
    {
        "id": 68,
        "username": "aferebee1v",
        "firstName": "Andriana",
        "lastName": "Ferebee",
        "email": "aferebee1v@google.com",
        "birthDate": "7/28/2009",
        "basicSalary": 5000000,
        "status": true,
        "group": "Engineering",
        "description": "Pre-emptive"
    },
    {
        "id": 69,
        "username": "mhammerberger1w",
        "firstName": "Marni",
        "lastName": "Hammerberger",
        "email": "mhammerberger1w@accuweather.com",
        "birthDate": "5/4/1994",
        "basicSalary": 7000000,
        "status": false,
        "group": "Human Resources",
        "description": "workforce"
    },
    {
        "id": 70,
        "username": "fveysey1x",
        "firstName": "Foster",
        "lastName": "Veysey",
        "email": "fveysey1x@newsvine.com",
        "birthDate": "7/28/2020",
        "basicSalary": 5000000,
        "status": true,
        "group": "Legal",
        "description": "Progressive"
    },
    {
        "id": 71,
        "username": "msterley1y",
        "firstName": "Malva",
        "lastName": "Sterley",
        "email": "msterley1y@youku.com",
        "birthDate": "4/9/2009",
        "basicSalary": 5000000,
        "status": false,
        "group": "Engineering",
        "description": "productivity"
    },
    {
        "id": 72,
        "username": "tmutimer1z",
        "firstName": "Tony",
        "lastName": "Mutimer",
        "email": "tmutimer1z@scientificamerican.com",
        "birthDate": "10/4/2020",
        "basicSalary": 9000000,
        "status": true,
        "group": "Business Development",
        "description": "service-desk"
    },
    {
        "id": 73,
        "username": "fhinstridge20",
        "firstName": "Freemon",
        "lastName": "Hinstridge",
        "email": "fhinstridge20@zimbio.com",
        "birthDate": "8/11/2020",
        "basicSalary": 9000000,
        "status": false,
        "group": "Engineering",
        "description": "Mandatory"
    },
    {
        "id": 74,
        "username": "rtruscott21",
        "firstName": "Rock",
        "lastName": "Truscott",
        "email": "rtruscott21@usda.gov",
        "birthDate": "7/14/1996",
        "basicSalary": 9000000,
        "status": false,
        "group": "Engineering",
        "description": "discrete"
    },
    {
        "id": 75,
        "username": "imacconnulty22",
        "firstName": "Isadora",
        "lastName": "MacConnulty",
        "email": "imacconnulty22@earthlink.net",
        "birthDate": "8/17/1995",
        "basicSalary": 5000000,
        "status": false,
        "group": "Accounting",
        "description": "Configurable"
    },
    {
        "id": 76,
        "username": "vfeary23",
        "firstName": "Vina",
        "lastName": "Feary",
        "email": "vfeary23@youtube.com",
        "birthDate": "6/22/2002",
        "basicSalary": 7000000,
        "status": false,
        "group": "Support",
        "description": "Versatile"
    },
    {
        "id": 77,
        "username": "mbaake24",
        "firstName": "Modestine",
        "lastName": "Baake",
        "email": "mbaake24@ebay.com",
        "birthDate": "8/18/2018",
        "basicSalary": 7000000,
        "status": true,
        "group": "Marketing",
        "description": "heuristic"
    },
    {
        "id": 78,
        "username": "jdemendoza25",
        "firstName": "Joseph",
        "lastName": "de Mendoza",
        "email": "jdemendoza25@cbslocal.com",
        "birthDate": "7/8/2011",
        "basicSalary": 7000000,
        "status": false,
        "group": "Engineering",
        "description": "Versatile"
    },
    {
        "id": 79,
        "username": "jcradick26",
        "firstName": "Jaimie",
        "lastName": "Cradick",
        "email": "jcradick26@cornell.edu",
        "birthDate": "1/26/2001",
        "basicSalary": 7000000,
        "status": true,
        "group": "Accounting",
        "description": "Centralized"
    },
    {
        "id": 80,
        "username": "pscardifield27",
        "firstName": "Poul",
        "lastName": "Scardifield",
        "email": "pscardifield27@stumbleupon.com",
        "birthDate": "3/21/2019",
        "basicSalary": 7000000,
        "status": true,
        "group": "Human Resources",
        "description": "5th generation"
    },
    {
        "id": 81,
        "username": "ebarden28",
        "firstName": "Eugenie",
        "lastName": "Barden",
        "email": "ebarden28@csmonitor.com",
        "birthDate": "8/30/1999",
        "basicSalary": 6000000,
        "status": false,
        "group": "Research and Development",
        "description": "asynchronous"
    },
    {
        "id": 82,
        "username": "gtalkington29",
        "firstName": "Gene",
        "lastName": "Talkington",
        "email": "gtalkington29@ycombinator.com",
        "birthDate": "7/1/1993",
        "basicSalary": 8000000,
        "status": false,
        "group": "Marketing",
        "description": "Re-engineered"
    },
    {
        "id": 83,
        "username": "aamerighi2a",
        "firstName": "Aeriel",
        "lastName": "Amerighi",
        "email": "aamerighi2a@istockphoto.com",
        "birthDate": "5/2/2015",
        "basicSalary": 5000000,
        "status": true,
        "group": "Research and Development",
        "description": "time-frame"
    },
    {
        "id": 84,
        "username": "ljelly2b",
        "firstName": "Laraine",
        "lastName": "Jelly",
        "email": "ljelly2b@yahoo.co.jp",
        "birthDate": "3/22/2009",
        "basicSalary": 6000000,
        "status": false,
        "group": "Human Resources",
        "description": "incremental"
    },
    {
        "id": 85,
        "username": "abrowning2c",
        "firstName": "Alejandro",
        "lastName": "Browning",
        "email": "abrowning2c@mediafire.com",
        "birthDate": "4/13/2003",
        "basicSalary": 8000000,
        "status": true,
        "group": "Accounting",
        "description": "Grass-roots"
    },
    {
        "id": 86,
        "username": "dkrimmer2d",
        "firstName": "Dolph",
        "lastName": "Krimmer",
        "email": "dkrimmer2d@goo.gl",
        "birthDate": "12/31/1991",
        "basicSalary": 5000000,
        "status": false,
        "group": "Accounting",
        "description": "stable"
    },
    {
        "id": 87,
        "username": "fmackrell2e",
        "firstName": "Flory",
        "lastName": "Mackrell",
        "email": "fmackrell2e@noaa.gov",
        "birthDate": "6/21/2020",
        "basicSalary": 9000000,
        "status": true,
        "group": "Legal",
        "description": "empowering"
    },
    {
        "id": 88,
        "username": "osayle2f",
        "firstName": "Othilie",
        "lastName": "Sayle",
        "email": "osayle2f@bloglines.com",
        "birthDate": "8/1/2001",
        "basicSalary": 5000000,
        "status": false,
        "group": "Accounting",
        "description": "systemic"
    },
    {
        "id": 89,
        "username": "zsimpson2g",
        "firstName": "Zarla",
        "lastName": "Simpson",
        "email": "zsimpson2g@example.com",
        "birthDate": "7/21/1996",
        "basicSalary": 5000000,
        "status": false,
        "group": "Accounting",
        "description": "system engine"
    },
    {
        "id": 90,
        "username": "aduiguid2h",
        "firstName": "Ava",
        "lastName": "Duiguid",
        "email": "aduiguid2h@t.co",
        "birthDate": "10/19/2010",
        "basicSalary": 5000000,
        "status": false,
        "group": "Training",
        "description": "customer loyalty"
    },
    {
        "id": 91,
        "username": "stwinn2i",
        "firstName": "Sile",
        "lastName": "Twinn",
        "email": "stwinn2i@oakley.com",
        "birthDate": "8/15/2002",
        "basicSalary": 6000000,
        "status": false,
        "group": "Services",
        "description": "capability"
    },
    {
        "id": 92,
        "username": "vgrenshiels2j",
        "firstName": "Vinson",
        "lastName": "Grenshiels",
        "email": "vgrenshiels2j@networkadvertising.org",
        "birthDate": "4/19/2014",
        "basicSalary": 9000000,
        "status": false,
        "group": "Training",
        "description": "Fully-configurable"
    },
    {
        "id": 93,
        "username": "penocksson2k",
        "firstName": "Paulina",
        "lastName": "Enocksson",
        "email": "penocksson2k@ow.ly",
        "birthDate": "7/15/1999",
        "basicSalary": 5000000,
        "status": false,
        "group": "Legal",
        "description": "Customer-focused"
    },
    {
        "id": 94,
        "username": "jthomesson2l",
        "firstName": "Johanna",
        "lastName": "Thomesson",
        "email": "jthomesson2l@tinyurl.com",
        "birthDate": "5/20/2020",
        "basicSalary": 9000000,
        "status": true,
        "group": "Accounting",
        "description": "real-time"
    },
    {
        "id": 95,
        "username": "mruslin2m",
        "firstName": "Maxie",
        "lastName": "Ruslin",
        "email": "mruslin2m@flickr.com",
        "birthDate": "7/21/2006",
        "basicSalary": 5000000,
        "status": false,
        "group": "Product Management",
        "description": "intermediate"
    },
    {
        "id": 96,
        "username": "dseivwright2n",
        "firstName": "Dorise",
        "lastName": "Seivwright",
        "email": "dseivwright2n@home.pl",
        "birthDate": "12/27/1993",
        "basicSalary": 5000000,
        "status": false,
        "group": "Marketing",
        "description": "Customer-focused"
    },
    {
        "id": 97,
        "username": "bpaulsson2o",
        "firstName": "Bevvy",
        "lastName": "Paulsson",
        "email": "bpaulsson2o@mit.edu",
        "birthDate": "1/5/1992",
        "basicSalary": 8000000,
        "status": true,
        "group": "Human Resources",
        "description": "object-oriented"
    },
    {
        "id": 98,
        "username": "nwinship2p",
        "firstName": "Nonnah",
        "lastName": "Winship",
        "email": "nwinship2p@com.com",
        "birthDate": "10/28/2017",
        "basicSalary": 8000000,
        "status": true,
        "group": "Human Resources",
        "description": "zero tolerance"
    },
    {
        "id": 99,
        "username": "dhick2q",
        "firstName": "Decca",
        "lastName": "Hick",
        "email": "dhick2q@moonfruit.com",
        "birthDate": "8/23/2014",
        "basicSalary": 8000000,
        "status": true,
        "group": "Engineering",
        "description": "zero defect"
    },
    {
        "id": 100,
        "username": "lantyshev2r",
        "firstName": "Lyndsey",
        "lastName": "Antyshev",
        "email": "lantyshev2r@ucla.edu",
        "birthDate": "10/26/2019",
        "basicSalary": 8000000,
        "status": false,
        "group": "Accounting",
        "description": "zero administration"
    }
]